[{"line":1,"elements":[{"line":4,"name":"Karate config test case","description":"","id":"karate-config-test-case","type":"scenario","keyword":"Scenario","steps":[{"name":"url baseUrl","result":{"duration":41000,"status":"passed"},"match":{"location":"karate","arguments":[]},"keyword":"Given","line":5,"doc_string":{"content_type":"","value":"18:33:41.047 From karate-config file","line":5}},{"name":"path listUsers","result":{"duration":71100,"status":"passed"},"match":{"location":"karate","arguments":[]},"keyword":"And","line":6},{"name":"method get","result":{"duration":728376300,"status":"passed"},"match":{"location":"karate","arguments":[]},"keyword":"When","line":7,"doc_string":{"content_type":"","value":"18:33:41.422 request:\n1 > GET https:\/\/reqres.in\/api\/users%3Fpage=2\n1 > Accept-Encoding: gzip,deflate\n1 > Connection: Keep-Alive\n1 > Host: reqres.in\n1 > User-Agent: Apache-HttpClient\/4.5.12 (Java\/1.8.0_251)\n\n18:33:41.860 response time in milliseconds: 426.82\n1 < 200\n1 < Access-Control-Allow-Origin: *\n1 < Age: 31\n1 < CF-Cache-Status: HIT\n1 < CF-RAY: 61c497df8e59c318-SIN\n1 < Cache-Control: max-age=14400\n1 < Connection: keep-alive\n1 < Content-Type: application\/json; charset=utf-8\n1 < Date: Thu, 04 Feb 2021 13:03:42 GMT\n1 < Etag: W\/\"2c1-N6Rqerxquq2kgQhL51EiSg4x0R8\"\n1 < Expect-CT: max-age=604800, report-uri=\"https:\/\/report-uri.cloudflare.com\/cdn-cgi\/beacon\/expect-ct\"\n1 < NEL: {\"report_to\":\"cf-nel\",\"max_age\":604800}\n1 < Report-To: {\"group\":\"cf-nel\",\"endpoints\":[{\"url\":\"https:\\\/\\\/a.nel.cloudflare.com\\\/report?s=RezFnSgw4fnRJHMpC8F8I2E47nuazT1aDZI607SoTyWV%2FbS%2FceNP%2F88fFD1lPpzxfgJ%2BLzE58y6V8KprHiRIo2hJy4dTdDZA5KI%3D\"}],\"max_age\":604800}\n1 < Server: cloudflare\n1 < Set-Cookie: __cfduid=d562e476ed5bed3260fd439c4cbd1e78e1612443822; expires=Sat, 06-Mar-21 13:03:42 GMT; path=\/; domain=.reqres.in; HttpOnly; SameSite=Lax; Secure\n1 < Transfer-Encoding: chunked\n1 < Vary: Accept-Encoding\n1 < Via: 1.1 vegur\n1 < X-Powered-By: Express\n1 < cf-request-id: 080ebd3fba0000c318248f4000000001\n{\"page\":1,\"per_page\":6,\"total\":12,\"total_pages\":2,\"data\":[{\"id\":1,\"name\":\"cerulean\",\"year\":2000,\"color\":\"#98B2D1\",\"pantone_value\":\"15-4020\"},{\"id\":2,\"name\":\"fuchsia rose\",\"year\":2001,\"color\":\"#C74375\",\"pantone_value\":\"17-2031\"},{\"id\":3,\"name\":\"true red\",\"year\":2002,\"color\":\"#BF1932\",\"pantone_value\":\"19-1664\"},{\"id\":4,\"name\":\"aqua sky\",\"year\":2003,\"color\":\"#7BC4C4\",\"pantone_value\":\"14-4811\"},{\"id\":5,\"name\":\"tigerlily\",\"year\":2004,\"color\":\"#E2583E\",\"pantone_value\":\"17-1456\"},{\"id\":6,\"name\":\"blue turquoise\",\"year\":2005,\"color\":\"#53B0AE\",\"pantone_value\":\"15-5217\"}],\"support\":{\"url\":\"https:\/\/reqres.in\/#support-heading\",\"text\":\"To keep ReqRes free, contributions towards server costs are appreciated!\"}}","line":7}},{"name":"status 200","result":{"duration":12500,"status":"passed"},"match":{"location":"karate","arguments":[]},"keyword":"Then","line":8},{"name":"print response","result":{"duration":416500,"status":"passed"},"match":{"location":"karate","arguments":[]},"keyword":"*","line":9,"doc_string":{"content_type":"","value":"18:33:41.860 [print] {\n  \"per_page\": 6,\n  \"total\": 12,\n  \"data\": [\n    {\n      \"color\": \"#98B2D1\",\n      \"year\": 2000,\n      \"name\": \"cerulean\",\n      \"id\": 1,\n      \"pantone_value\": \"15-4020\"\n    },\n    {\n      \"color\": \"#C74375\",\n      \"year\": 2001,\n      \"name\": \"fuchsia rose\",\n      \"id\": 2,\n      \"pantone_value\": \"17-2031\"\n    },\n    {\n      \"color\": \"#BF1932\",\n      \"year\": 2002,\n      \"name\": \"true red\",\n      \"id\": 3,\n      \"pantone_value\": \"19-1664\"\n    },\n    {\n      \"color\": \"#7BC4C4\",\n      \"year\": 2003,\n      \"name\": \"aqua sky\",\n      \"id\": 4,\n      \"pantone_value\": \"14-4811\"\n    },\n    {\n      \"color\": \"#E2583E\",\n      \"year\": 2004,\n      \"name\": \"tigerlily\",\n      \"id\": 5,\n      \"pantone_value\": \"17-1456\"\n    },\n    {\n      \"color\": \"#53B0AE\",\n      \"year\": 2005,\n      \"name\": \"blue turquoise\",\n      \"id\": 6,\n      \"pantone_value\": \"15-5217\"\n    }\n  ],\n  \"page\": 1,\n  \"total_pages\": 2,\n  \"support\": {\n    \"text\": \"To keep ReqRes free, contributions towards server costs are appreciated!\",\n    \"url\": \"https:\/\/reqres.in\/#support-heading\"\n  }\n}18:33:41.860 after scenario inside config","line":9}}]}],"name":"src\/test\/java\/featurefiles\/karate23_usingconfig.feature","description":"karate Test Suit 23\nReading Global Variables from Karate config","id":"karate-test-suit-23","keyword":"Feature","uri":"src\/test\/java\/featurefiles\/karate23_usingconfig.feature"}]